Parrish R Package • ParrishRPackage
…
Working Examples

Function for removing and changing NA values

This function allows you to change non-NA values if applicable, then dropping those NA values from a data set in one function. If your data set already contains NA values, then this function can simply be used to remove those values.

This is useful for data cleanup, especially if you have plans of plotting the data set. This function gives you a data set with no NA values, and some examples are below.

library(ParrishRPackage)
change_na_rm(ants, "None")

## # A tibble: 23 × 9
##    taxon      reference_no subfamily  Tribe   Genus   Fossil min_ma max_ma Notes
##    <chr>             <dbl> <chr>      <chr>   <chr>   <chr>   <dbl>  <dbl> <chr>
##  1 Amblyopon…        53165 Ambylopon… Amblyo… Amblyo… Yes     20.4    23.0 Note 
##  2 Solenopsi…        39931 Myrmicinae Soleno… Soleno… Yes     20.4    23.0 Note 
##  3 Solenopsis        56112 Myrmicinae Soleno… Soleno… Yes      5.33    8.7 Note 
##  4 Solenopsi…        38999 Myrmicinae Soleno… Soleno… Yes     28.4    33.9 Note 
##  5 Solenopsi…        38738 Myrmicinae Soleno… Soleno… Yes     28.4    33.9 Note 
##  6 Solenopsi…        38999 Myrmicinae Soleno… Soleno… Yes     28.4    33.9 Note 
##  7 Solenopsi…        38738 Myrmicinae Soleno… Soleno… Yes     28.4    33.9 Note 
##  8 Solenopsi…        38738 Myrmicinae Soleno… Soleno… Yes     28.4    33.9 Note 
##  9 Solenopsi…        38738 Myrmicinae Soleno… Soleno… Yes     28.4    33.9 Note 
## 10 Solenopsi…        38738 Myrmicinae Soleno… Soleno… Yes     28.4    33.9 Note 
## # … with 13 more rows

library(ParrishRPackage)
change_na_rm(combined)

## # A tibble: 30,676 × 13
##    record_id month   day  year plot_id species_id sex   hindfoot_length weight
##        <dbl> <dbl> <dbl> <dbl>   <dbl> <chr>      <chr>           <dbl>  <dbl>
##  1       845     5     6  1978       2 NL         M                  32    204
##  2      1164     8     5  1978       2 NL         M                  34    199
##  3      1261     9     4  1978       2 NL         M                  32    197
##  4      1756     4    29  1979       2 NL         M                  33    166
##  5      1818     5    30  1979       2 NL         M                  32    184
##  6      1882     7     4  1979       2 NL         M                  32    206
##  7      2133    10    25  1979       2 NL         F                  33    274
##  8      2184    11    17  1979       2 NL         F                  30    186
##  9      2406     1    16  1980       2 NL         F                  33    184
## 10      3000     5    18  1980       2 NL         F                  31     87
## # … with 30,666 more rows, and 4 more variables: genus <chr>, species <chr>,
## #   taxa <chr>, plot_type <chr>

This function can also be used to strategically remove a column if needed. This is useful if a column in your data set was not recorded correctly, or if it simply needs to be removed for further data cleanup.

library(ParrishRPackage)
change_na_rm(butterfly, "Plebejus icarioides")

## # A tibble: 126 × 5
##    ButterflySpecies       Year   Day SpringTemp SummerTemp
##    <chr>                 <dbl> <dbl>      <dbl>      <dbl>
##  1 Glaucopsyche lygdamus  1931   133       6.85       15.4
##  2 Cupido amyntula        1931   143       6.85       15.4
##  3 Cupido amyntula        1931   158       6.85       15.4
##  4 Glaucopsyche lygdamus  1931   212       6.85       15.4
##  5 Cupido amyntula        1933   142       5.4        14.9
##  6 Glaucopsyche lygdamus  1933   154       5.4        14.9
##  7 Glaucopsyche lygdamus  1933   156       5.4        14.9
##  8 Coenonympha tullia     1933   168       5.4        14.9
##  9 Coenonympha tullia     1937   186       6.4        15.2
## 10 Glaucopsyche lygdamus  1938   138       6.78       15.8
## # … with 116 more rows
…
